%YAML 1.1
%TAG !u! tag:unity3d.com,2011:
--- !u!1045 &1
EditorBuildSettings:
  m_ObjectHideFlags: 0
  serializedVersion: 2
  m_Scenes:
  - enabled: 1
    path: Assets/PotatoSDK/Resources/SplashScreen.unity
    guid: 3d3b242a403790142bd485cef75b2a30
  - enabled: 1
    path: Assets/Scenes/Levels_Rail/Rail_Level1.unity
    guid: 399f393252e644742ac2f9bd8b8300f8
  - enabled: 1
    path: Assets/Scenes/Levels_Rail/Rail_Level2.unity
    guid: 15f7633aba7d18d4b96596792f29b9a8
  - enabled: 1
    path: Assets/Scenes/Levels_Rail/Rail_Level3.unity
    guid: 8994ee329b27bae44b74b8bc698b4963
  - enabled: 1
    path: Assets/Scenes/Levels_Rail/Rail_Level4.unity
    guid: 4688ca2c2ff39fd459c18fc98634fa70
  - enabled: 1
    path: Assets/Scenes/Levels_Rail/Rail_Level5.unity
    guid: 12140cb696abb184cb09773a16b6f460
  - enabled: 1
    path: Assets/Scenes/Levels_Rail/Rail_Level6.unity
    guid: 234fdc9f46b136548bd60589c59107bf
  - enabled: 1
    path: Assets/Scenes/Levels_Rail/Rail_Level7.unity
    guid: eac1d856036081245ac7a669b137fb0c
  - enabled: 1
    path: Assets/Scenes/Levels_Rail/Rail_Level8.unity
    guid: 71a363d39a9f7174d82d8735a2efb582
  - enabled: 1
    path: Assets/Scenes/Levels_Rail/Rail_Level9.unity
    guid: 323b91e0f6b5306479f28b1b180fcdeb
  - enabled: 1
    path: Assets/Scenes/Levels_Rail/Rail_Level10.unity
    guid: 05f483d0edd76e74d8ce24c4ca9c5b52
  - enabled: 0
    path: Assets/Scenes/Levels/Level1.unity
    guid: 704c1666f11da1147b21e947690fe40a
  - enabled: 0
    path: Assets/Scenes/Levels/Level2.unity
    guid: 89eb8fae13c29ca4bbe72b31b7f38a04
  - enabled: 0
    path: Assets/Scenes/Levels/Level3.unity
    guid: 1b7c098321619a348afdd0bfee26d65a
  - enabled: 0
    path: Assets/Scenes/Levels/Level4.unity
    guid: 761d0635324586646a68cee67e7c27bf
  - enabled: 0
    path: Assets/Scenes/Levels/Level5.unity
    guid: 6c7e35c63be077748a7e82f4f200bc66
  - enabled: 0
    path: Assets/Scenes/Levels/Level6.unity
    guid: bde1bbdb90ea98b43a0d44a49eefeb99
  - enabled: 0
    path: Assets/Scenes/Levels/Level7.unity
    guid: 4fd87574c788f144fa44c153e425c961
  - enabled: 0
    path: Assets/Scenes/Levels/Level8.unity
    guid: ec342c2f53c24504b9c2f328dd4318b6
  - enabled: 0
    path: Assets/Scenes/Levels/Level9.unity
    guid: a6b59a59b9010fa409a418cab714020c
  - enabled: 0
    path: Assets/Scenes/Levels/Level10.unity
    guid: 8c57fb26cd60fd04db05616da8c81801
  m_configObjects: {}
